{
  "id" : "",
  "sections" : [{
    "name" : "Имя секции",
    "template_code" : "section_1",
    "template" : "<div data-position=\"1\" data-templates=\"template_1\"></div><div data-position=\"2\" data-templates=\"template_1\"></div>",
    "value" : "<div data-position=\"1\" data-templates=\"template_1\"><div><h1>Имя</h1></div></div><div data-position=\"2\" data-templates=\"template_1\"></div>",
    "tagIds" : [{
      "id" : "12",
      "name" : "Тег 1"
    }],
    "blocks" : [{
      "position" : "1",
      "template" : "<div><h1>{name}</h1></div>",
      "template_code" : "template_1",
      "material_id" : "10",
      "variables" : "['name']",
      "value" : "<div><h1>Тестовый заголовок</h1></div>"
    }]
  }]
}